{
    "class":"cmx.types.Resources",
    "includes":[
    ],
    "items":[
        {
            "class":"cmx.types.Resource",
            "type":"JS-HEADER-INCLUDE",
            "url":"%XASWEB%/lib/external/moment.js",
            "enabled":true
        },
        {
            "class":"cmx.types.Resource",
            "type":"CSS",
            "url":"%XASWEB%/lib/dijit/themes/claro/document.css",
            "enabled":true
        },
        {
            "class":"cmx.types.Resource",
            "type":"CSS",
            "url":"%XASWEB%/lib/dijit/themes/claro/claro.css",
            "enabled":true
        },
        {
            "class":"cmx.types.Resource",
            "type":"CSS",
            "url":"%XASWEB%/css/elusive-icons/elusive-webfont.css",
            "enabled":true
        },
        {
            "class":"cmx.types.Resource",
            "type":"CSS",
            "url":"%XASWEB%/css/xcf/main.css",
            "enabled":true,
            "flatten":true
        },
        {
            "class":"cmx.types.Resource",
            "type":"CSS",
            "url":"%XASWEB%/css/font-awesome/css/font-awesome.css",
            "enabled":true
        },
        {
            "class":"cmx.types.Resource",
            "type":"HTML",
            "url":"%XASWEB%/lib/xide/templates/body.html",
            "enabled":true
        },
        {
            "class":"cmx.types.Resource",
            "type":"LOGIN",
            "url":"%XASWEB%/lib/xcf/templates/login.html",
            "enabled":true
        },
        {
            "class":"cmx.types.Resource",
            "type":"JS-HEADER-SCRIPT-TAG",
            "url":"%XASWEB%/lib/xcf/Header.javascript",
            "enabled":true
        },
        {
            "class": "cmx.types.Resource",
            "enabled": true,
            "type": "JS-HEADER-INCLUDE",
            "url": "%XASWEB%/lib/external/easyXDM.js"
        },
        {
            "class":"cmx.types.Resource",
            "type":"JS-HEADER-INCLUDE",
            "enabled": true,
            "url":"%XASWEB%/xfile/ext/ace/ace.js"
        },
        {
            "class":"cmx.types.Resource",
            "type":"JS-HEADER-INCLUDE",
            "enabled": false,
            "url":"%XASWEB%/xfile/ext/ace/mode-html_completions.js"
        },
        {
            "class":"cmx.types.Resource",
            "type":"JS-HEADER-INCLUDE",
            "enabled": true,
            "url":"%XASWEB%/xfile/ext/ace/ext-language_tools.js"
        },
        {
            "class":"cmx.types.Resource",
            "type":"JS-HEADER-INCLUDE",
            "enabled": false,
            "url":"%XASWEB%/xfile/ext/ace/ext-linking.js"
        },
        {
            "class":"cmx.types.Resource",
            "type":"JS-HEADER-INCLUDE",
            "enabled": true,
            "url":"%XASWEB%/xfile/ext/ace/ext-statusbar.js"
        },
        {
            "class":"cmx.types.Resource",
            "type":"JS-HEADER-INCLUDE",
            "enabled": true,
            "url":"%XASWEB%/xfile/ext/ace/ext-whitespace.js"
        },
        {
            "class":"cmx.types.Resource",
            "type":"JS-HEADER-INCLUDE",
            "url":"%XASWEB%/lib/external/sockjs-0.3.min.js",
            "enabled":true
        },
        {
            "class":"cmx.types.Resource",
            "type":"JS-HEADER-INCLUDE",
            "url":"%XASWEB%/lib/external/hasids.js",
            "enabled":false
        },
        {
            "class":"cmx.types.Resource",
            "type":"JS-HEADER-INCLUDE",
            "url":"%XASWEB%/lib/external/atomizejs/cereal.js",
            "enabled":false
        },
        {
            "class":"cmx.types.Resource",
            "type":"JS-HEADER-INCLUDE",
            "url":"%XASWEB%/lib/external/atomizejs/compat.js",
            "enabled":false
        },
        {
            "class":"cmx.types.Resource",
            "type":"JS-HEADER-INCLUDE",
            "url":"%XASWEB%/lib/external/atomizejs/atomize.js",
            "enabled":false
        },
        {
            "class":"cmx.types.Resource",
            "type":"JS-HEADER-INCLUDE",
            "url":"%XASWEB%/lib/external/atomizejs/atomize-client.js",
            "enabled":false
        },
        {
            "class":"cmx.types.Resource",
            "type":"JS-HEADER-INCLUDE",
            "url":"%XASWEB%/lib/external/buffer.js",
            "enabled":false
        },
        {
            "class":"cmx.types.Resource",
            "type":"JS-HEADER-INCLUDE",
            "url":"%XASWEB%/lib/external/vogue-client.js",
            "enabled":true
        },
        {
            "class":"cmx.types.Resource",
            "type":"JS-HEADER-INCLUDE",
            "url":"%XASWEB%/lib/external/cjs/cjs.js",
            "enabled":false
        },
        {
            "class":"cmx.types.Resource",
            "type":"JS-HEADER-INCLUDE",
            "url":"http://getfirebug.com/firebug-lite.js#enableTrace=true,overrideConsole=true,startOpened=false,ignoreFirebugElements=false",
            "enabled":false
        },
        {
            "class":"cmx.types.Resource",
            "type":"JS-HEADER-INCLUDE",
            "url":"%XASWEB%/lib/external/stacktrace.min.js",
            "enabled":true
        },
        {
            "class":"cmx.types.Resource",
            "type":"CSS",
            "url":"%XASWEB%/lib/external/json_editor_src/dist/jsoneditor.css",
            "enabled":false
        },
        {
            "class":"cmx.types.Resource",
            "type":"JS-HEADER-INCLUDE",
            "url":"%XASWEB%/lib/external/json_editor_src/dist/jsoneditor.js",
            "enabled":false
        },
        {
            "class":"cmx.types.Resource",
            "type":"JS-HEADER-INCLUDE",
            "enabled": true,
            "url":"%XASWEB%/lib/external/jquery-2.1.4.min.js"
        },
        {
            "class":"cmx.types.Resource",
            "type":"JS-HEADER-INCLUDE",
            "enabled": true,
            "url":"%XASWEB%/lib/external/jquery-ui.min.js"
        },
        {
            "class":"cmx.types.Resource",
            "type":"CSS",
            "enabled": false,
            "url":"%XASWEB%/css/xfile/quicklook.css"
        },
        {
            "class":"cmx.types.Resource",
            "type":"CSS",
            "url":"%XASWEB%/css/xide/xideve.css",
            "enabled":true
        },
        {
            "class":"cmx.types.Resource",
            "type":"JS-HEADER-INCLUDE",
            "url":"%XASWEB%/lib/external/Keypress/keypress.js",
            "enabled":true
        },
        {
            "class":"cmx.types.Resource",
            "type":"JS-HEADER-INCLUDE",
            "url":"%XASWEB%/lib/external/lodash.min.js",
            "enabled":true
        },
        {
            "class":"cmx.types.Resource",
            "type":"JS-HEADER-INCLUDE",
            "url":"%XASWEB%/lib/external/velocity/velocity.min.js",
            "enabled":true
        },
        {
            "class":"cmx.types.Resource",
            "type":"JS-HEADER-INCLUDE",
            "url":"%XASWEB%/lib/external/velocity/velocity.ui.min.js",
            "enabled":true
        },
        {
            "class":"cmx.types.Resource",
            "type":"JS-HEADER-INCLUDE",
            "link":"http://pthrasher.github.io/minimatch-test/",
            "url":"%XASWEB%/lib/external/image-grid/js/justified-image-grid.js",
            "enabled":false
        },
        {
            "class":"cmx.types.Resource",
            "type":"JS-HEADER-INCLUDE",
            "url":"%XASWEB%/lib/external/position-calculator.min.js",
            "enabled":true
        },
        {
            "class":"cmx.types.Resource",
            "type":"JS-HEADER-INCLUDE",
            "url":"%XASWEB%/lib/external/jQuery/plugins/tooltipster/js/jquery.tooltipster.min.js",
            "enabled":false
        },
        {
            "class":"cmx.types.Resource",
            "type":"JS-HEADER-INCLUDE",
            "url":"%XASWEB%/lib/external/jQuery/jquery.hideseek.min.js",
            "enabled":false
        },
        {
            "class":"cmx.types.Resource",
            "type":"CSS",
            "url":"%XASWEB%/lib/external/jQuery/plugins/tooltipster/css/tooltipster.css",
            "enabled":false
        },
        {
            "class":"cmx.types.Resource",
            "type":"CSS",
            "url":"%XASWEB%/lib/external/jQuery/plugins/tooltipster/css/themes/tooltipster-light.css",
            "enabled":false
        },

        {
            "class":"cmx.types.Resource",
            "type":"CSS",
            "url":"%XASWEB%/css/commons/docker.css",
            "enabled":false
        },
        {
            "class":"cmx.types.Resource",
            "type":"CSS",
            "url":"%XASWEB%/css/ribbon/dhtmlxribbon_material.css",
            "enabled":true
        },
        {
            "class":"cmx.types.Resource",
            "type":"CSS",
            "url":"%XASWEB%/css/ribbon/dhtmlxribbon_dhx_web.css",
            "enabled":true
        },
        {
            "class":"cmx.types.Resource",
            "type":"CSS",
            "url":"%XASWEB%/css/ribbon/dhtmlxribbon_dhx_terrace.css",
            "enabled":true
        },
        {
            "class":"cmx.types.Resource",
            "type":"CSS",
            "url":"%XASWEB%/theme/html-%THEME%/dist/css/application.css",
            "enabled":true
        },
        {
            "class":"cmx.types.Resource",
            "type":"CSS",
            "url":"%XASWEB%/css/commons/stylesheets/bootstrap-override.css",
            "enabled":true
        },
        {
            "class":"cmx.types.Resource",
            "type":"JS-HEADER-INCLUDE",
            "url":"%XASWEB%/theme/bower_components/bootstrap-sass-official/assets/javascripts/bootstrap.js",
            "enabled":true
        },
        {
            "class":"cmx.types.Resource",
            "type":"JS-HEADER-INCLUDE",
            "url":"%XASWEB%/lib/external/messenger_latest/build/js/messenger.js",
            "enabled":true
        },
        {
            "class":"cmx.types.Resource",
            "type":"JS-HEADER-INCLUDE",
            "url":"%XASWEB%/lib/external/messenger_latest/build/js/messenger-theme-air.js",
            "enabled":false
        },
        {
            "class":"cmx.types.Resource",
            "type":"CSS",
            "url":"%XASWEB%/lib/external/messenger_latest/build/css/messenger-theme-flat.css",
            "enabled":true
        },
        {
            "class":"cmx.types.Resource",
            "type":"JS-HEADER-INCLUDE",
            "url":"%XASWEB%/lib/external/jQuery/osm-menu.1.3.min.js",
            "enabled":true
        },
        {
            "class":"cmx.types.Resource",
            "type":"JS-HEADER-INCLUDE",
            "url":"%XASWEB%/lib/external/jQuery/jquery.loadTemplate-1.5.0.js",
            "enabled":false
        },
        {
            "class":"cmx.types.Resource",
            "type":"JS-HEADER-INCLUDE",
            "url":"%XASWEB%/lib/external/bootstrap-select/dist/js/bootstrap-select.js",
            "enabled":true
        },
        {
            "class":"cmx.types.Resource",
            "type":"CSS",
            "url":"%XASWEB%/lib/external/bootstrap-select/dist/css/bootstrap-select.css",
            "enabled":true
        },
        {
            "class":"cmx.types.Resource",
            "type":"JS-HEADER-INCLUDE",
            "url":"%XASWEB%/lib/external/bootstrap3-dialog/dist/js/bootstrap-dialog.js",
            "enabled":true
        },
        {
            "class":"cmx.types.Resource",
            "type":"CSS",
            "url":"%XASWEB%/lib/external/bootstrap3-dialog/dist/css/bootstrap-dialog.css",
            "enabled":true
        },
        {
            "class":"cmx.types.Resource",
            "type":"JS-HEADER-INCLUDE",
            "url":"%XASWEB%/lib/external/jquery.jqdock.js",
            "enabled":false
        },
        {
            "class":"cmx.types.Resource",
            "type":"JS-HEADER-INCLUDE",
            "enabled": true,
            "url":"%XASWEB%/xfile/ext/d3.v3.min.js"
        },
        {
            "class":"cmx.types.Resource",
            "type":"CSS",
            "url":"%XASWEB%/lib/external/font-awesome-picker/dist/css/fontawesome-iconpicker.min.css",
            "enabled":true
        },
        {
            "class":"cmx.types.Resource",
            "type":"JS-HEADER-INCLUDE",
            "url":"%XASWEB%/lib/external/font-awesome-picker/src/js/iconpicker.js",
            "enabled":true
        },
        {
            "class":"cmx.types.Resource",
            "type":"JS-HEADER-INCLUDE",
            "url":"%XASWEB%/lib/external/font-awesome-picker/src/js/jquery.ui.pos.js",
            "enabled":true
        },
        {
            "class":"cmx.types.Resource",
            "type":"JS-HEADER-INCLUDE",
            "url":"%XASWEB%/lib/external/wysihtml/dist/wysihtml-toolbar.js",
            "enabled":true
        },
        {
            "class":"cmx.types.Resource",
            "type":"JS-HEADER-INCLUDE",
            "url":"%XASWEB%/lib/external/bootstrap3-editable/js/bootstrap-editable.js",
            "enabled":true
        },
        {
            "class":"cmx.types.Resource",
            "type":"JS-HEADER-INCLUDE",
            "url":"%XASWEB%/lib/external/bootstrap-dropdown-hover/hover.js",
            "enabled":true
        },
        {
            "class":"cmx.types.Resource",
            "type":"JS-HEADER-INCLUDE",
            "url":"%XASWEB%/lib/external/typeahead/typeahead.jquery.js",
            "enabled":false
        },
        {
            "class":"cmx.types.Resource",
            "type":"CSS",
            "url":"%XASWEB%/lib/external/bootstrap3-editable/css/bootstrap-editable.css",
            "enabled":true
        },
        {
            "class":"cmx.types.Resource",
            "type":"JS-HEADER-INCLUDE",
            "url":"%XASWEB%/lib/external/twitter-bootstrap-wizard/jquery.bootstrap.wizard.js",
            "enabled":true
        },
        {
            "class":"cmx.types.Resource",
            "type":"JS-HEADER-INCLUDE",
            "url":"%XASWEB%/lib/external/selectize/dist/js/standalone/selectize.js",
            "enabled":true
        },
        {
            "class":"cmx.types.Resource",
            "type":"JS-HEADER-INCLUDE",
            "url":"%XASWEB%/lib/external/cssParserFixed.js",
            "enabled":true
        },
        {
            "class":"cmx.types.Resource",
            "type":"CSS",
            "url":"%XASWEB%/lib/external/selectize/dist/css/selectize.bootstrap3.css",
            "enabled":false
        },
        {
            "class":"cmx.types.Resource",
            "type":"JS-BODY-INCLUDE",
            "url":"%XASWEB%/lib/external/jspanel3/source/jquery.jspanel-compiled.js",
            "enabled":true
        },
        {
            "class":"cmx.types.Resource",
            "type":"JS-HEADER-INCLUDE",
            "enabled": true,
            "url":"%XASWEB%/xcf/ext/showdown/dist/showdown.js"
        },
        {
            "class":"cmx.types.Resource",
            "type":"JS-HEADER-INCLUDE",
            "enabled": true,
            "url":"%XASWEB%/lib/external/micromatch/dist/micromatch-browser.js"
        },
        {
            "class":"cmx.types.Resource",
            "type":"JS-HEADER-INCLUDE",
            "enabled": true,
            "url":"%XASWEB%/lib/external/hightlight/highlight.pack.js"
        },
        {
            "class":"cmx.types.Resource",
            "type":"CSS",
            "enabled": true,
            "url":"%XASWEB%/lib/external/hightlight/styles/xcode.css"
        },
        {
            "class":"cmx.types.Resource",
            "type":"JS-HEADER-INCLUDE",
            "enabled": false,
            "url":"%XASWEB%/lib/external/markdown-editor/debug/simplemde.debug.js"
        },
        {
            "class":"cmx.types.Resource",
            "type":"CSS",
            "enabled": false,
            "url":"%XASWEB%/lib/external/markdown-editor/debug/simplemde.css"
        }
    ]
}
