{
    "class":"cmx.types.Resources",
    "includes":[

    ],
    "items":[
        {
            "class":"cmx.types.Resource",
            "type":"JS-HEADER-INCLUDE",
            "url":"%XASWEB%/lib/external/Keypress/keypress.js",
            "enabled":true
        },
        {
            "class":"cmx.types.Resource",
            "type":"JS-HEADER-INCLUDE",
            "url":"%XASWEB%/lib/external/moment-with-langs.min.js",
            "enabled":true
        },
        {
            "class":"cmx.types.Resource",
            "type":"CSS",
            "url":"%XASWEB%/lib/dijit/themes/claro/document.css",
            "enabled":true
        },
        {
            "class":"cmx.types.Resource",
            "type":"CSS",
            "url":"%XASWEB%/css/font-awesome/css/font-awesome.css",
            "enabled":true
        },
        {
            "class":"cmx.types.Resource",
            "type":"CSS",
            "url":"%XASWEB%/css/elusive-icons/elusive-webfont.css",
            "enabled":true
        },
        {
            "class":"cmx.types.Resource",
            "type":"CSS",
            "url":"%XASWEB%/css/elusive-icons/elusive-webfont-ie7.css",
            "enabled":true
        },
        {
            "class":"cmx.types.Resource",
            "type":"CSS",
            "url":"%XASWEB%/lib/dojox/layout/resources/ResizeHandle.css",
            "enabled":true
        },
        {
            "class":"cmx.types.Resource",
            "type":"CSS",
            "url":"%XASWEB%/lib/dijit/themes/claro/claro.css",
            "enabled":true
        },
        {
            "class":"cmx.types.Resource",
            "type":"CSS",
            "url":"%XASWEB%/css/xfile/main.css",
            "enabled":true,
            "preventCache":true

        },
        {
            "class":"cmx.types.Resource",
            "type":"CSS",
            "url":"%XASWEB%/css/xbox/xboxAdmin.css",
            "enabled":false
        },
        {
            "class":"cmx.types.Resource",
            "type":"CSS",
            "url":"%XASWEB%/lib/dijit/icons/editorIcons.css",
            "enabled":true
        },
        {
            "class":"cmx.types.Resource",
            "type":"CSS",
            "url":"%XASWEB%/lib/dgrid/css/dgrid.css",
            "enabled":true
        },
        {
            "class":"cmx.types.Resource",
            "type":"CSS",
            "url":"%XASWEB%/lib/dojox/layout/resources/ToggleSplitter.css",
            "enabled":true
        },
        {
            "class":"cmx.types.Resource",
            "type":"JS-HEADER-INCLUDE",
            "url":"%XASWEB%/lib/external/ckeditorfull/ckeditor.js",
            "enabled":true
        },
        {
            "class":"cmx.types.Resource",
            "type":"JS-HEADER-INCLUDE",
            "url":"%XASWEB%/lib/external/lodash.min.js",
            "enabled":true
        },
        {
            "class":"cmx.types.Resource",
            "type":"HTML",
            "url":"%XASWEB%/lib/xbox/templates/body.html",
            "enabled":true
        },
        {
            "class":"cmx.types.Resource",
            "type":"JS-HEADER-SCRIPT-TAG",
            "url":"%XASWEB%/lib/xbox/Header.js",
            "enabled":true
        },
        {
            "class":"cmx.types.Resource",
            "type":"CSS",
            "url":"http://code.jquery.com/ui/1.10.3/themes/%JQUERY_THEME%/jquery-ui.css",
            "enabled":false
        },
        {
            "class":"cmx.types.Resource",
            "type":"CSS",
            "url":"%XASWEB%/themes/jQuery/dot-luv/jquery-ui.css",
            "enabled":false
        },
        {
            "class":"cmx.types.Resource",
            "type":"CSS",
            "url":"%XASWEB%/themes/jQuery/%JQUERY_THEME%/jquery-ui.css",
            "enabled":true
        },
        {
            "class":"cmx.types.Resource",
            "type":"JS-HEADER-INCLUDE",
            "enabled": true,
            "url":"%XASWEB%/xfile/ext/ace/ace.js"
        },
        {
            "class":"cmx.types.Resource",
            "type":"JS-HEADER-INCLUDE",
            "enabled": false,
            "url":"%XASWEB%/xfile/ext/ace/mode-html_completions.js"
        },
        {
            "class":"cmx.types.Resource",
            "type":"JS-HEADER-INCLUDE",
            "enabled": true,
            "url":"%XASWEB%/xfile/ext/ace/ext-language_tools.js"
        },
        {
            "class":"cmx.types.Resource",
            "type":"JS-HEADER-INCLUDE",
            "enabled": false,
            "url":"%XASWEB%/lib/ace/src-min-noconflict/ace.js"

        },
        {
            "class":"cmx.types.Resource",
            "type":"JS-HEADER-INCLUDE",
            "enabled": false,
            "url":"%XASWEB%/lib/ace/src-min-noconflict/mode-json.js"
        },
        {
            "class":"cmx.types.Resource",
            "type":"JS-HEADER-INCLUDE",
            "enabled": false,
            "url":"%XASWEB%/lib/ace/src-min-noconflict/mode-html_completions.js"
        },
        {
            "class":"cmx.types.Resource",
            "type":"JS-HEADER-INCLUDE",
            "enabled": true,
            "url":"%XASWEB%/lib/ace/src-min-noconflict/ext-language_tools.js"
        },
        {
            "class":"cmx.types.Resource",
            "type":"JS-HEADER-INCLUDE",
            "enabled": true,
            "url":"%XASWEB%/lib/ace/src-min-noconflict/worker-javascript.js"
        },
        {
            "class":"cmx.types.Resource",
            "type":"JS-HEADER-INCLUDE",
            "enabled": true,
            "url":"%XASWEB%/lib/external/jquery-1.9.1.min.js"
        },
        {
            "class":"cmx.types.Resource",
            "type":"JS-HEADER-INCLUDE",
            "enabled": true,
            "url":"%XASWEB%/lib/external/jquery-ui-1.10.1.custom.min.js"
        },
        {
            "class":"cmx.types.Resource",
            "type":"LOGIN",
            "url":"%XASWEB%/lib/xbox/templates/login.html",
            "enabled":true
        },
        {
            "class":"cmx.types.Resource",
            "type":"JS-HEADER-INCLUDE",
            "enabled": false,
            "url":"%XASWEB%/xfile/ext/cflow/cflow.js"
        },
        {
            "class":"cmx.types.Resource",
            "type":"CSS",
            "url":"%XASWEB%/lib/external/cflow/start/load/skin_allsizes_white.css",
            "enabled":true
        },
        {
            "class":"cmx.types.Resource",
            "type":"JS-HEADER-INCLUDE",
            "url":"%XASWEB%/lib/external/sockjs-0.3.min.js",
            "enabled":true
        },
        {
            "class":"cmx.types.Resource",
            "type":"CSS",
            "url":"%XASWEB%/css/xide/xideve.css",
            "enabled":true
        },
        {
            "class":"cmx.types.Resource",
            "type":"JS-HEADER-INCLUDE",
            "url":"%XASWEB%/xfile/ext/jsoneditor/jsoneditor.js",
            "enabled":true
        },
        {
            "class":"cmx.types.Resource",
            "type":"CSS",
            "url":"%XASWEB%/css/commons/jsoneditor.css",
            "enabled":true
        },
        {
            "class":"cmx.types.Resource",
            "type":"JS-HEADER-INCLUDE",
            "url":"%XASWEB%/lib/external/stacktrace.js",
            "enabled":true
        },
        {
            "class":"cmx.types.Resource",
            "type":"JS-HEADER-INCLUDE",
            "url":"%XASWEB%/lib/external/zoom.js",
            "enabled":false
        },
        {
            "class":"cmx.types.Resource",
            "type":"JS-HEADER-INCLUDE",
            "enabled": true,
            "url":"%XASWEB%/lib/external/cflow/js/FWDS3DCovCategoriesButton.js"
        },
        {
            "class":"cmx.types.Resource",
            "type":"JS-HEADER-INCLUDE",
            "enabled": true,
            "url":"%XASWEB%/lib/external/cflow/js/FWDS3DCovCategoriesMenu.js"
        },
        {
            "class":"cmx.types.Resource",
            "type":"JS-HEADER-INCLUDE",
            "enabled": true,
            "url":"%XASWEB%/lib/external/cflow/js/FWDS3DCovComplexButton.js"
        },
        {
            "class":"cmx.types.Resource",
            "type":"JS-HEADER-INCLUDE",
            "enabled": true,
            "url":"%XASWEB%/lib/external/cflow/js/FWDS3DCovContextMenu.js"
        },
        {
            "class":"cmx.types.Resource",
            "type":"JS-HEADER-INCLUDE",
            "enabled": true,
            "url":"%XASWEB%/lib/external/cflow/js/FWDS3DCovData.js"
        },
        {
            "class":"cmx.types.Resource",
            "type":"JS-HEADER-INCLUDE",
            "enabled": true,
            "url":"%XASWEB%/lib/external/cflow/js/FWDS3DCovDisplayObject.js"
        },
        {
            "class":"cmx.types.Resource",
            "type":"JS-HEADER-INCLUDE",
            "enabled": true,
            "url":"%XASWEB%/lib/external/cflow/js/FWDS3DCovDisplayObject3D.js"
        },
        {
            "class":"cmx.types.Resource",
            "type":"JS-HEADER-INCLUDE",
            "enabled": true,
            "url":"%XASWEB%/lib/external/cflow/js/FWDS3DCovEventDispatcher.js"
        },
        {
            "class":"cmx.types.Resource",
            "type":"JS-HEADER-INCLUDE",
            "enabled": true,
            "url":"%XASWEB%/lib/external/cflow/js/FWDS3DCovInfo.js"
        },
        {
            "class":"cmx.types.Resource",
            "type":"JS-HEADER-INCLUDE",
            "enabled": true,
            "url":"%XASWEB%/lib/external/cflow/js/FWDS3DCovInfoWindow.js"
        },
        {
            "class":"cmx.types.Resource",
            "type":"JS-HEADER-INCLUDE",
            "enabled": true,
            "url":"%XASWEB%/lib/external/cflow/js/FWDS3DCovLightBox.js"
        },
        {
            "class":"cmx.types.Resource",
            "type":"JS-HEADER-INCLUDE",
            "enabled": true,
            "url":"%XASWEB%/lib/external/cflow/js/FWDS3DCovModTweenMax.js"
        },
        {
            "class":"cmx.types.Resource",
            "type":"JS-HEADER-INCLUDE",
            "enabled": true,
            "url":"%XASWEB%/lib/external/cflow/js/FWDS3DCovPreloader.js"
        },
        {
            "class":"cmx.types.Resource",
            "type":"JS-HEADER-INCLUDE",
            "enabled": true,
            "url":"%XASWEB%/lib/external/cflow/js/FWDS3DCovScrollbar.js"
        },
        {
            "class":"cmx.types.Resource",
            "type":"JS-HEADER-INCLUDE",
            "enabled": true,
            "url":"%XASWEB%/lib/external/cflow/js/FWDS3DCovSimpleButton.js"
        },
        {
            "class":"cmx.types.Resource",
            "type":"JS-HEADER-INCLUDE",
            "enabled": true,
            "url":"%XASWEB%/lib/external/cflow/js/FWDS3DCovSimpleDisplayObject.js"
        },
        {
            "class":"cmx.types.Resource",
            "type":"JS-HEADER-INCLUDE",
            "enabled": true,
            "url":"%XASWEB%/lib/external/cflow/js/FWDS3DCovSlideshowButton.js"
        },
        {
            "class":"cmx.types.Resource",
            "type":"JS-HEADER-INCLUDE",
            "enabled": true,
            "url":"%XASWEB%/lib/external/cflow/js/FWDS3DCovSlideShowPreloader.js"
        },
        {
            "class":"cmx.types.Resource",
            "type":"JS-HEADER-INCLUDE",
            "enabled": true,
            "url":"%XASWEB%/lib/external/cflow/js/FWDS3DCovThumb.js"
        },
        {
            "class":"cmx.types.Resource",
            "type":"JS-HEADER-INCLUDE",
            "enabled": true,
            "url":"%XASWEB%/lib/external/cflow/js/FWDS3DCovThumbsManager.js"
        },
        {
            "class":"cmx.types.Resource",
            "type":"JS-HEADER-INCLUDE",
            "enabled": true,
            "url":"%XASWEB%/lib/external/cflow/js/FWDS3DCovTimerManager.js"
        },
        {
            "class":"cmx.types.Resource",
            "type":"JS-HEADER-INCLUDE",
            "enabled": true,
            "url":"%XASWEB%/lib/external/cflow/js/FWDS3DCovTooltip.js"
        },
        {
            "class":"cmx.types.Resource",
            "type":"JS-HEADER-INCLUDE",
            "enabled": true,
            "url":"%XASWEB%/lib/external/cflow/js/FWDS3DCovUtils.js"
        },
        {
            "class":"cmx.types.Resource",
            "type":"JS-HEADER-INCLUDE",
            "enabled": true,
            "url":"%XASWEB%/lib/external/cflow/js/FWDSimple3DCoverflow.js"
        }


    ]
}
